id	source-language	source	target-language	target-sys1	comment-sys1	target-sys2	comment-sys2	target-sys3	comment-sys3	reference-url	comment
1	de	Großes Konvolut alter/älterer	en	Sys 1 target text 	Sys 1 comment	Sys 2 target text 	Sys 2 comment	Sys 3 target text	Sys 3 comment	 http://i.ebayimg.com/images/i/161401017732-0-1/s-l500.jpg	global com1
6666	de	Kreidler Florett RS Oldtimer	en	Sys 1 target text 	Sys 1 comment	Sys 2 target text 	Sys 2 comment	Sys 3 target text	Sys 3 comment	http://i.ebayimg.com/images/i/161401017732-0-1/s-l500.jpg	global com2
7777	de	Loop Schal Schlauchschal	en	Sys 1 target text 	Sys 1 comment	Sys 2 target text 	Sys 2 comment	Sys 3 target text	Sys 3 comment	http://i.ebayimg.com/images/i/161401017732-0-1/s-l500.jpg	global com3
8888	de	Steckregal Lagerregal Schwerlastregal	en	Sys 1 target text 	Sys 1 comment	Sys 2 target text 	Sys 2 comment	Sys 3 target text 	Sys 3 comment	http://i.ebayimg.com/images/i/161401017732-0-1/s-l500.jpg	global com4
