source-language	target-language	comment-sys3	reference-url	reference	comment
de	en	Sys 3 comment	 http://i.ebayimg.com/images/i/161401017732-0-1/s-l500.jpg	textual reference 1	global com1
de	en	Sys 3 comment	http://i.ebayimg.com/images/i/161401017732-0-1/s-l500.jpg	textual reference 2	global com2
de	en	Sys 3 comment	http://i.ebayimg.com/images/i/161401017732-0-1/s-l500.jpg	textual reference 3	global com3
de	en	Sys 3 comment	http://i.ebayimg.com/images/i/161401017732-0-1/s-l500.jpg	textual reference 4	global com4
